…
To get the raw records that to be used (i.e. fall within cells with
enough data):

``` r
cell_100k$dat_to_use
#> Simple feature collection with 8173 features and 5 fields
#> geometry type:  POINT
#> dimension:      XY
#> bbox:           xmin: -246930.5 ymin: -827406.3 xmax: 1944863 ymax: 1025360
#> epsg (SRID):    NA
#> proj4string:    +proj=aea +lat_1=29.5 +lat_2=45.5 +lat_0=37.5 +lon_0=-96 +x_0=0 +y_0=0 +ellps=GRS80 +towgs84=0,0,0,0,0,0,0 +units=m +no_defs
#> # A tibble: 8,173 x 6
#>    id_iNat flowers scientific_name     observed_on            geometry id_cells
#>  *   <dbl>   <dbl> <chr>               <date>              <POINT [m]>    <int>
#>  1   58129       1 Claytonia virginica 2012-03-14   (1127061 268941.6)      740
#>  2   60878       1 Claytonia virginica 2012-03-18   (1607161 159337.7)      698
#>  3   62915       1 Claytonia virginica 2012-04-06   (1199452 498004.4)      882
#>  4   71851       1 Claytonia virginica 2012-04-29     (1139628 458921)      834
#>  5  229730       1 Claytonia virginica 2013-04-05  (1514004 -38586.48)      603
#>  6  236518       1 Claytonia virginica 2013-04-14   (1179408 485569.1)      882
#>  7  240011       1 Claytonia virginica 2013-04-18   (1201700 497737.7)      882
#>  8  247008       1 Claytonia virginica 2013-04-27   (1309953 383145.3)      836
#>  9  249102       1 Claytonia virginica 2013-04-29   (1169172 491358.7)      882
#> 10  465413       1 Claytonia virginica 2010-04-10  (676948.7 532757.4)      877
#> # … with 8,163 more rows
```
…
